…
    ## Joining with `by = join_by(baker_first, series)`

    ## # A tibble: 0 × 6
    ## # ℹ 6 variables: baker_first <chr>, baker_last <chr>, series <dbl>,
    ## #   baker_age <dbl>, baker_occupation <chr>, hometown <chr>

``` r
anti_join(results, bakes)
```

    ## Joining with `by = join_by(baker_first, series, episode)`

    ## # A tibble: 170 × 5
    ##    baker_first series episode technical result    
    ##    <chr>        <dbl>   <dbl>     <dbl> <chr>     
    ##  1 Joanne           2       1        11 IN        
    ##  2 Joanne           2       2        10 IN        
    ##  3 Joanne           2       3         1 IN        
    ##  4 Joanne           2       4         8 IN        
    ##  5 Joanne           2       5         6 IN        
    ##  6 Joanne           2       6         1 STAR BAKER
    ##  7 Joanne           2       7         3 IN        
    ##  8 Joanne           2       8         1 WINNER    
    ##  9 Diana            5       5        NA WD        
    ## 10 Diana            5       6        NA IN        
    ## # ℹ 160 more rows
…
